% $ biblatex auxiliary file $
% $ biblatex bbl format version 3.1 $
% Do not modify the above lines!
%
% This is an auxiliary file used by the 'biblatex' package.
% This file may safely be deleted. It will be recreated by
% biber as required.
%
\begingroup
\makeatletter
\@ifundefined{ver@biblatex.sty}
  {\@latex@error
     {Missing 'biblatex' package}
     {The bibliography requires the 'biblatex' package.}
      \aftergroup\endinput}
  {}
\endgroup


\refsection{0}
  \datalist[entry]{none/global//global/global}
    \entry{20200424_Modul8_Ausfallsraten_berp}{manual}{}
      \name{author}{1}{}{%
        {{un=0,uniquepart=base,hash=9eb0084639cbf13be63c9d48579b3414}{%
           family={Meile},
           familyi={M\bibinitperiod},
           given={Bruno},
           giveni={B\bibinitperiod},
           givenun=0}}%
      }
      \strng{namehash}{9eb0084639cbf13be63c9d48579b3414}
      \strng{fullhash}{9eb0084639cbf13be63c9d48579b3414}
      \strng{bibnamehash}{9eb0084639cbf13be63c9d48579b3414}
      \strng{authorbibnamehash}{9eb0084639cbf13be63c9d48579b3414}
      \strng{authornamehash}{9eb0084639cbf13be63c9d48579b3414}
      \strng{authorfullhash}{9eb0084639cbf13be63c9d48579b3414}
      \field{sortinit}{1}
      \field{sortinithash}{50c6687d7fc80f50136d75228e3c59ba}
      \field{extradatescope}{labelyear}
      \field{labeldatesource}{year}
      \true{uniqueprimaryauthor}
      \field{labelnamesource}{author}
      \field{labeltitlesource}{title}
      \field{journaltitle}{Systemtechnik Sys-B Hybride Lernfabrik an der NTB}
      \field{title}{Beschreibung Unterricht Modul 8 Ausfallraten}
      \field{year}{2020}
    \endentry
    \entry{CP-F-ASRS32-P-D-A002}{manual}{}
      \name{author}{1}{}{%
        {{un=0,uniquepart=base,hash=6a902e800b73a65d0d8f59e63a0f5abe}{%
           family={{Festo Didactic}},
           familyi={F\bibinitperiod}}}%
      }
      \strng{namehash}{6a902e800b73a65d0d8f59e63a0f5abe}
      \strng{fullhash}{6a902e800b73a65d0d8f59e63a0f5abe}
      \strng{bibnamehash}{6a902e800b73a65d0d8f59e63a0f5abe}
      \strng{authorbibnamehash}{6a902e800b73a65d0d8f59e63a0f5abe}
      \strng{authornamehash}{6a902e800b73a65d0d8f59e63a0f5abe}
      \strng{authorfullhash}{6a902e800b73a65d0d8f59e63a0f5abe}
      \field{extraname}{1}
      \field{sortinit}{2}
      \field{sortinithash}{ed39bb39cf854d5250e95b1c1f94f4ed}
      \field{extradate}{1}
      \field{extradatescope}{labelyear}
      \field{labeldatesource}{year}
      \field{labelnamesource}{author}
      \field{labeltitlesource}{title}
      \field{journaltitle}{CP Factory}
      \field{title}{Hochregallager für Paletten - Bedienungsanleitung}
      \field{year}{2018}
    \endentry
    \entry{CP-F-ASRS32-P-D-C001}{manual}{}
      \name{author}{1}{}{%
        {{un=0,uniquepart=base,hash=6a902e800b73a65d0d8f59e63a0f5abe}{%
           family={{Festo Didactic}},
           familyi={F\bibinitperiod}}}%
      }
      \strng{namehash}{6a902e800b73a65d0d8f59e63a0f5abe}
      \strng{fullhash}{6a902e800b73a65d0d8f59e63a0f5abe}
      \strng{bibnamehash}{6a902e800b73a65d0d8f59e63a0f5abe}
      \strng{authorbibnamehash}{6a902e800b73a65d0d8f59e63a0f5abe}
      \strng{authornamehash}{6a902e800b73a65d0d8f59e63a0f5abe}
      \strng{authorfullhash}{6a902e800b73a65d0d8f59e63a0f5abe}
      \field{extraname}{2}
      \field{sortinit}{3}
      \field{sortinithash}{a37a8ef248a93c322189792c34fc68c9}
      \field{extradate}{2}
      \field{extradatescope}{labelyear}
      \field{labeldatesource}{year}
      \field{labelnamesource}{author}
      \field{labeltitlesource}{title}
      \field{journaltitle}{CP Factory}
      \field{title}{Hochregallager für Paletten - Datenblätter}
      \field{year}{2018}
    \endentry
    \entry{NPRD-91}{report}{}
      \name{author}{4}{}{%
        {{un=0,uniquepart=base,hash=57cf322f9ac12793cfaea63376270077}{%
           family={Denson},
           familyi={D\bibinitperiod},
           given={William},
           giveni={W\bibinitperiod},
           givenun=0}}%
        {{un=0,uniquepart=base,hash=f273559860c054bac2798255207f43c1}{%
           family={Chandler},
           familyi={C\bibinitperiod},
           given={Greg},
           giveni={G\bibinitperiod},
           givenun=0}}%
        {{un=0,uniquepart=base,hash=3e357a9ee5a0c1356a658406c8869504}{%
           family={Crowell},
           familyi={C\bibinitperiod},
           given={William},
           giveni={W\bibinitperiod},
           givenun=0}}%
        {{un=0,uniquepart=base,hash=e9425f66485ddbe6136f58e6f7ba2212}{%
           family={Wanner},
           familyi={W\bibinitperiod},
           given={Rick},
           giveni={R\bibinitperiod},
           givenun=0}}%
      }
      \strng{namehash}{3dc80a96431626bc4d7448a90033bdb3}
      \strng{fullhash}{ebd40e5e56cdebda1f5be31cbdbb9eab}
      \strng{bibnamehash}{ebd40e5e56cdebda1f5be31cbdbb9eab}
      \strng{authorbibnamehash}{ebd40e5e56cdebda1f5be31cbdbb9eab}
      \strng{authornamehash}{3dc80a96431626bc4d7448a90033bdb3}
      \strng{authorfullhash}{ebd40e5e56cdebda1f5be31cbdbb9eab}
      \field{sortinit}{4}
      \field{sortinithash}{e071e0bcb44634fab398d68ad04e69f4}
      \field{extradatescope}{labelyear}
      \field{labeldatesource}{year}
      \true{uniqueprimaryauthor}
      \field{labelnamesource}{author}
      \field{labeltitlesource}{title}
      \field{journaltitle}{NONELECTRONIC PARTS RELIABILITY DATA 91}
      \field{title}{NPRD-91}
      \field{year}{1991}
    \endentry
    \entry{Mod_10}{manual}{}
      \list{organization}{1}{%
        {NTB}%
      }
      \field{sortinit}{8}
      \field{sortinithash}{1b24cab5087933ef0826a7cd3b99e994}
      \field{extradatescope}{labelyear}
      \field{labeldatesource}{year}
      \field{labeltitlesource}{title}
      \field{journaltitle}{Systemtechnik Sys-B Hybride Lernfabrik an der NTB}
      \field{title}{Modul 10: CIROS-Übung}
      \field{year}{2020}
    \endentry
    \entry{FAQ_RPI}{online}{}
      \field{sortinit}{9}
      \field{sortinithash}{54047ffb55bdefa0694bbd554c1b11a0}
      \field{labeldatesource}{nodate}
      \field{labeltitlesource}{title}
      \field{title}{FAQs}
      \field{urlday}{25}
      \field{urlmonth}{6}
      \field{urlyear}{2020}
      \field{urldateera}{ce}
      \verb{urlraw}
      \verb https://www.raspberrypi.org/documentation/faqs/
      \endverb
      \verb{url}
      \verb https://www.raspberrypi.org/documentation/faqs/
      \endverb
    \endentry
    \entry{PiJuiceGuide}{online}{}
      \field{sortinit}{1}
      \field{sortinithash}{50c6687d7fc80f50136d75228e3c59ba}
      \field{labeldatesource}{nodate}
      \field{labeltitlesource}{title}
      \field{title}{PiJuice Guide}
      \field{urlday}{28}
      \field{urlmonth}{6}
      \field{urlyear}{2020}
      \field{urldateera}{ce}
      \verb{urlraw}
      \verb https://github.com/PiSupply/PiJuice/blob/master/Documentation/PiJuice%20Guide.pdf
      \endverb
      \verb{url}
      \verb https://github.com/PiSupply/PiJuice/blob/master/Documentation/PiJuice%20Guide.pdf
      \endverb
    \endentry
    \entry{MIL_hb}{report}{}
      \field{sortinit}{1}
      \field{sortinithash}{50c6687d7fc80f50136d75228e3c59ba}
      \field{extradatescope}{labelyear}
      \field{labeldatesource}{year}
      \field{labeltitlesource}{title}
      \field{journaltitle}{Reliability Prediction Of Electronic Equipment}
      \field{title}{Military Handboock}
      \field{year}{2017}
    \endentry
    \entry{Mod_11}{manual}{}
      \list{organization}{1}{%
        {NTB}%
      }
      \field{sortinit}{1}
      \field{sortinithash}{50c6687d7fc80f50136d75228e3c59ba}
      \field{extradatescope}{labelyear}
      \field{labeldatesource}{year}
      \field{labeltitlesource}{title}
      \field{journaltitle}{Systemtechnik Sys-B Hybride Lernfabrik an der NTB}
      \field{title}{Modul 11 Unterricht: Odometrie von Robotino berechnen}
      \field{year}{2020}
    \endentry
    \entry{DAMRE}{report}{}
      \name{author}{3}{}{%
        {{un=0,uniquepart=base,hash=3533046a1d29d8f66f9c70d035fe2630}{%
           family={Crnokić},
           familyi={C\bibinitperiod},
           given={Boris},
           giveni={B\bibinitperiod},
           givenun=0}}%
        {{un=0,uniquepart=base,hash=e95416977ed36a9d7ce1a6bc8209bd40}{%
           family={Grubišić},
           familyi={G\bibinitperiod},
           given={Miroslav},
           giveni={M\bibinitperiod},
           givenun=0}}%
        {{un=0,uniquepart=base,hash=c9469079f8bb4f99db2a287a88ea42b0}{%
           family={Volarić},
           familyi={V\bibinitperiod},
           given={Tomislav},
           giveni={T\bibinitperiod},
           givenun=0}}%
      }
      \strng{namehash}{fd817cfb0d78e6f49093e9067b9a72b9}
      \strng{fullhash}{031cfbae9f0be4dd484002269177a59f}
      \strng{bibnamehash}{031cfbae9f0be4dd484002269177a59f}
      \strng{authorbibnamehash}{031cfbae9f0be4dd484002269177a59f}
      \strng{authornamehash}{fd817cfb0d78e6f49093e9067b9a72b9}
      \strng{authorfullhash}{031cfbae9f0be4dd484002269177a59f}
      \field{sortinit}{1}
      \field{sortinithash}{50c6687d7fc80f50136d75228e3c59ba}
      \field{extradatescope}{labelyear}
      \field{labeldatesource}{year}
      \true{uniqueprimaryauthor}
      \field{labelnamesource}{author}
      \field{labeltitlesource}{title}
      \field{title}{Different Applications of Mobile Robots in Education}
      \field{year}{2017}
    \endentry
    \entry{Robotermontage}{manual}{}
      \name{author}{1}{}{%
        {{un=0,uniquepart=base,hash=6a902e800b73a65d0d8f59e63a0f5abe}{%
           family={{Festo Didactic}},
           familyi={F\bibinitperiod}}}%
      }
      \list{organization}{1}{%
        {Festo}%
      }
      \strng{namehash}{6a902e800b73a65d0d8f59e63a0f5abe}
      \strng{fullhash}{6a902e800b73a65d0d8f59e63a0f5abe}
      \strng{bibnamehash}{6a902e800b73a65d0d8f59e63a0f5abe}
      \strng{authorbibnamehash}{6a902e800b73a65d0d8f59e63a0f5abe}
      \strng{authornamehash}{6a902e800b73a65d0d8f59e63a0f5abe}
      \strng{authorfullhash}{6a902e800b73a65d0d8f59e63a0f5abe}
      \field{extraname}{3}
      \field{sortinit}{1}
      \field{sortinithash}{50c6687d7fc80f50136d75228e3c59ba}
      \field{extradatescope}{labelyear}
      \field{labeldatesource}{year}
      \field{labelnamesource}{author}
      \field{labeltitlesource}{title}
      \field{title}{Robotermontage}
      \field{year}{2017}
    \endentry
    \entry{Robotino}{manual}{}
      \name{author}{1}{}{%
        {{un=0,uniquepart=base,hash=6a902e800b73a65d0d8f59e63a0f5abe}{%
           family={{Festo Didactic}},
           familyi={F\bibinitperiod}}}%
      }
      \list{organization}{1}{%
        {Festo}%
      }
      \strng{namehash}{6a902e800b73a65d0d8f59e63a0f5abe}
      \strng{fullhash}{6a902e800b73a65d0d8f59e63a0f5abe}
      \strng{bibnamehash}{6a902e800b73a65d0d8f59e63a0f5abe}
      \strng{authorbibnamehash}{6a902e800b73a65d0d8f59e63a0f5abe}
      \strng{authornamehash}{6a902e800b73a65d0d8f59e63a0f5abe}
      \strng{authorfullhash}{6a902e800b73a65d0d8f59e63a0f5abe}
      \field{extraname}{4}
      \field{sortinit}{1}
      \field{sortinithash}{50c6687d7fc80f50136d75228e3c59ba}
      \field{extradatescope}{labelyear}
      \field{labeldatesource}{year}
      \field{labelnamesource}{author}
      \field{labeltitlesource}{title}
      \field{title}{Robotino® Quick Start Guide}
      \field{year}{2016}
    \endentry
  \enddatalist
  \missing{teil8}
\endrefsection
\endinput

